C:\private\maven-test-siu\my-maven-project\src\main\java\com\siuware\joda\JodaExample.java
C:\private\maven-test-siu\my-maven-project\src\main\java\com\siuware\mathsExample\ListLinks.java
C:\private\maven-test-siu\my-maven-project\src\main\java\com\siuware\gsonExample\GSonExample.java
C:\private\maven-test-siu\my-maven-project\src\main\java\com\siuware\OKhttpExample\okExample.java
C:\private\maven-test-siu\my-maven-project\src\main\java\com\siuware\xSteamExample\XstreamExample.java
C:\private\maven-test-siu\my-maven-project\src\main\java\com\siuware\guavaExample\GuavaExample.java
C:\private\maven-test-siu\my-maven-project\src\main\java\com\siuware\lombockExample\PersonExample.java
C:\private\maven-test-siu\my-maven-project\src\main\java\com\siuware\mathsExample\MathsExample.java
C:\private\maven-test-siu\my-maven-project\src\main\java\com\siuware\mathsExample\App.java
